<svg id="cancel" xmlns="http://www.w3.org/2000/svg" xmlns:xlink="http://www.w3.org/1999/xlink" width="96" height="96" viewBox="0 0 96 96">
  <defs>
    <linearGradient id="linear-gradient" y1="0.056" x2="1" y2="1" gradientUnits="objectBoundingBox">
      <stop offset="0" stop-color="#ff5c5c"/>
      <stop offset="1" stop-color="#ff5c75"/>
    </linearGradient>
  </defs>
  <rect id="Прямоугольник_3" data-name="Прямоугольник 3" width="96" height="96" rx="48" opacity="0.2" fill="url(#linear-gradient)"/>
  <rect id="Прямоугольник_4" data-name="Прямоугольник 4" width="80" height="80" rx="40" transform="translate(8 8)" fill="#ff6c6c"/>
  <path id="Контур_2" data-name="Контур 2" d="M44.08,42.52q-.407-8.458-.407-11.96c0-2.4,2.156-3.56,4.532-3.56,2.177,0,4,1.266,4,3.56q0,3.5-.174,11.96t-.174,11.9c0,1.774-2.1,2.567-3.655,2.567q-3.72,0-3.72-2.567,0-3.438-.4-11.9ZM52.5,65.508A4.416,4.416,0,0,1,48.27,70a4.656,4.656,0,0,1-4.77-4.492,4.557,4.557,0,0,1,4.769-4.492A4.42,4.42,0,0,1,52.5,65.508Zm0,0" fill="#fff"/>
</svg>
