<svg xmlns="http://www.w3.org/2000/svg" width="15" height="15" viewBox="0 0 15 15">
  <g id="Group_2716" data-name="Group 2716" transform="translate(0 0)">
    <path id="more_1_" data-name="more (1)" d="M15.107,2.144,9.345,7.9,3.584,2.143a1.019,1.019,0,0,0-1.44,1.44L7.9,9.345,2.143,15.107a1.019,1.019,0,0,0,1.44,1.44l5.762-5.761,5.761,5.761a1.019,1.019,0,1,0,1.44-1.44L10.786,9.345l5.761-5.761a1.019,1.019,0,1,0-1.44-1.44Z" transform="translate(-1.845 -1.845)" fill="#abafb5"/>
  </g>
</svg>
